{
  "activeViewId" : "52081c69-ef5b-416b-b3e4-c7a14ba0569b",
  "appPageId" : "0f2ab2ff-d900-4495-8007-72d50aed49d4",
  "configurationTags" : [ ],
  "id" : "f684b443-9e0e-4561-82a4-82e482331407",
  "label" : "Error",
  "pageAccess" : "UseParent",
  "routeType" : "error",
  "type" : "route",
  "urlPrefix" : "error"
}