{
  "activeViewId" : "c39dbabf-f25a-4f32-bcc3-9bd2ba5b25ff",
  "appPageId" : "0f2ab2ff-d900-4495-8007-72d50aed49d4",
  "configurationTags" : [ ],
  "id" : "17a1c19b-d96a-4b67-924c-12ff63c9b491",
  "label" : "Home",
  "pageAccess" : "UseParent",
  "routeType" : "home",
  "type" : "route",
  "urlPrefix" : ""
}