{
  "activeViewId" : "3fd2a4f0-058d-4b13-a00b-1dd660945a88",
  "appPageId" : "746cca7b-cb3a-496e-b67d-fa41b6124699",
  "configurationTags" : [ ],
  "id" : "0d7516f0-d3a9-4cc4-809f-63da40cc8b26",
  "label" : "Login",
  "routeType" : "login-home",
  "type" : "route",
  "urlPrefix" : ""
}