{
  "componentVariants" : [ {
    "id" : "a39dc43c-86e7-45c9-8fc1-1a45d111f3e0",
    "propertyOverrides" : {
      "componentAttributes" : {
        "NavigationMenuEditorRefresh" : "HVCallCenterUsers"
      }
    },
    "targetId" : "9f255c13-50bb-4ff3-b921-cb6cbdb9d0e3",
    "type" : "componentVariant"
  } ],
  "developerName" : "Default_Navigation_Menu_3_Component_Properties",
  "id" : "3743779c-f382-4309-a6aa-6b9fb5c229ff",
  "type" : "experienceVariation"
}