{
  "appPageId" : "0f2ab2ff-d900-4495-8007-72d50aed49d4",
  "componentName" : "siteforce:dynamicLayout",
  "id" : "91393c4e-371d-4402-8664-7216d8cb3775",
  "label" : "Patient dashboard",
  "regions" : [ {
    "components" : [ {
      "componentAttributes" : {
        "background" : "background: rgba(0,0,0,0)",
        "backgroundOverlay" : "rgba(0,0,0,0.5)",
        "contentAreaWidth" : 100,
        "sectionConfig" : {
          "UUID" : "39c00d20-086d-42ae-948b-5044c38aee2a",
          "columns" : [ {
            "UUID" : "19f3fe92-918b-49f3-bd10-7e292034b1fb",
            "columnKey" : "1",
            "columnName" : "Column 1",
            "columnWidth" : "12",
            "seedComponents" : [ ]
          } ]
        },
        "sectionHeight" : 300
      },
      "componentName" : "forceCommunity:section",
      "id" : "39c00d20-086d-42ae-948b-5044c38aee2a",
      "regions" : [ {
        "components" : [ {
          "componentAttributes" : { },
          "componentName" : "c:hvPatientPortal",
          "id" : "460142b6-a47f-4e63-b2c1-cdce08a2a75e",
          "renderPriority" : "NEUTRAL",
          "renditionMap" : { },
          "type" : "component"
        } ],
        "id" : "19f3fe92-918b-49f3-bd10-7e292034b1fb",
        "regionLabel" : "Column 1",
        "regionName" : "1",
        "renditionMap" : { },
        "type" : "region"
      } ],
      "renderPriority" : "NEUTRAL",
      "renditionMap" : { },
      "type" : "component"
    }, {
      "componentAttributes" : {
        "background" : "background: rgba(0,0,0,0)",
        "backgroundOverlay" : "rgba(0,0,0,0.5)",
        "contentAreaWidth" : 100,
        "sectionConfig" : {
          "UUID" : "28639c11-ac55-4b79-974d-663c0deecc22",
          "columns" : [ {
            "UUID" : "7a3abd78-b642-4ce1-9fba-e7bf42bc3255",
            "columnKey" : "1",
            "columnName" : "Column 1",
            "columnWidth" : "12",
            "seedComponents" : [ ]
          } ]
        },
        "sectionHeight" : 300
      },
      "componentName" : "forceCommunity:section",
      "id" : "28639c11-ac55-4b79-974d-663c0deecc22",
      "regions" : [ {
        "id" : "7a3abd78-b642-4ce1-9fba-e7bf42bc3255",
        "regionLabel" : "Column 1",
        "regionName" : "1",
        "renditionMap" : { },
        "type" : "region"
      } ],
      "renderPriority" : "NEUTRAL",
      "renditionMap" : { },
      "type" : "component"
    }, {
      "componentAttributes" : {
        "background" : "background: rgba(0,0,0,0)",
        "backgroundOverlay" : "rgba(0,0,0,0.5)",
        "contentAreaWidth" : 100,
        "sectionConfig" : {
          "UUID" : "b16454ea-8af7-46fa-af94-9d141f3569cf",
          "columns" : [ {
            "UUID" : "3fc279ca-2f42-447e-b89c-d15c21934f69",
            "columnKey" : "1",
            "columnName" : "Column 1",
            "columnWidth" : "12",
            "seedComponents" : [ ]
          } ]
        },
        "sectionHeight" : 300
      },
      "componentName" : "forceCommunity:section",
      "id" : "b16454ea-8af7-46fa-af94-9d141f3569cf",
      "regions" : [ {
        "id" : "3fc279ca-2f42-447e-b89c-d15c21934f69",
        "regionLabel" : "Column 1",
        "regionName" : "1",
        "renditionMap" : { },
        "type" : "region"
      } ],
      "renderPriority" : "NEUTRAL",
      "renditionMap" : { },
      "type" : "component"
    } ],
    "id" : "c2f9e152-5edc-4133-add9-4fcbfc09542d",
    "regionName" : "content",
    "type" : "region"
  }, {
    "components" : [ {
      "componentAttributes" : {
        "customHeadTags" : "",
        "description" : "",
        "title" : "Patient dashboard"
      },
      "componentName" : "forceCommunity:seoAssistant",
      "id" : "bc9d7481-3e44-46f8-a9b9-da5297dcce29",
      "renditionMap" : { },
      "type" : "component"
    } ],
    "id" : "09941ab4-634b-4b5c-bcc1-385e0dd7eb2d",
    "regionName" : "sfdcHiddenRegion",
    "type" : "region"
  } ],
  "themeLayoutType" : "Inner",
  "type" : "view",
  "viewType" : "custom-patient-dashboard"
}