{
  "appPageId" : "0f2ab2ff-d900-4495-8007-72d50aed49d4",
  "componentName" : "siteforce:sldsOneColLayout",
  "id" : "e249b5cf-489e-4a1e-9d21-3bbedbc9ba1f",
  "label" : "Record Detail",
  "regions" : [ {
    "id" : "206b9fae-547b-4ce3-925d-aa314115efab",
    "regionName" : "header",
    "type" : "region"
  }, {
    "components" : [ {
      "componentAttributes" : {
        "recordId" : "{!recordId}"
      },
      "componentName" : "forceCommunity:recordHeadline",
      "id" : "86d21a9e-4dee-4c8b-b858-6273eb33ad1d",
      "renderPriority" : "NEUTRAL",
      "renditionMap" : { },
      "type" : "component"
    }, {
      "componentAttributes" : {
        "detailsTabLabel" : "Details",
        "discussionsTabLabel" : "Feed",
        "recordId" : "{!recordId}",
        "relatedTabLabel" : "Related",
        "tab1Type" : "details",
        "tab2Type" : "related",
        "tab3Type" : "chatter",
        "tab4Type" : "none",
        "timelineTabLabel" : "Activity"
      },
      "componentName" : "forceCommunity:recordHomeTabs",
      "id" : "2c92db22-7139-499c-b584-78a2d1999de4",
      "renderPriority" : "NEUTRAL",
      "renditionMap" : { },
      "type" : "component"
    } ],
    "id" : "69c78404-6983-47bd-a889-611c8eff67ad",
    "regionName" : "content",
    "type" : "region"
  }, {
    "id" : "92427342-5cb0-48f0-b419-145a6fbc5063",
    "regionName" : "footer",
    "type" : "region"
  }, {
    "components" : [ {
      "componentAttributes" : {
        "customHeadTags" : "",
        "description" : "",
        "title" : "{!Record._Object}: {!Record._Title}"
      },
      "componentName" : "forceCommunity:seoAssistant",
      "id" : "9577032b-2078-460f-a098-fdd3860b4c87",
      "renditionMap" : { },
      "type" : "component"
    } ],
    "id" : "c122addd-0f58-4656-9f43-a3f8127077f2",
    "regionName" : "sfdcHiddenRegion",
    "type" : "region"
  } ],
  "themeLayoutType" : "Inner",
  "type" : "view",
  "viewType" : "detail"
}