{
  "appPageId" : "b9345d3f-d979-40a1-90a3-f03e5459c9fb",
  "componentName" : "siteforce:sldsOneColLayout",
  "id" : "c82d0d71-feef-4e48-b289-659ba64945a3",
  "label" : "Action Plan Template Detail",
  "regions" : [ {
    "components" : [ {
      "componentAttributes" : { },
      "componentName" : "runtime_industries_actionplan:highlightsPanel",
      "id" : "b7549d02-9b2a-4eb5-bf7e-5d0cbdfb4784",
      "renderPriority" : "NEUTRAL",
      "renditionMap" : { },
      "type" : "component"
    } ],
    "id" : "2c17e58e-8a81-428a-9c3b-d88c634ded37",
    "regionName" : "header",
    "type" : "region"
  }, {
    "components" : [ {
      "componentAttributes" : {
        "tabsetConfig" : {
          "UUID" : "0ff82e49-4795-4ae5-bbe0-1f5c9f3015a8",
          "activeTab" : "tab1",
          "tabs" : [ {
            "UUID" : "66b958e9-cc34-459d-b553-f00e75d020f7",
            "allowGuestUser" : false,
            "locked" : false,
            "seedComponents" : [ {
              "attributes" : { },
              "fqn" : "runtime_industries_actionplan:taskManager"
            }, {
              "attributes" : { },
              "fqn" : "runtime_industries_actionplan:checklistItemManager"
            } ],
            "tabKey" : "tab1",
            "tabName" : "Items"
          }, {
            "UUID" : "f32d0ac8-f600-4aae-9e20-a8b65d695d8e",
            "allowGuestUser" : false,
            "locked" : false,
            "seedComponents" : [ {
              "attributes" : { },
              "fqn" : "forceCommunity:recordDetail"
            } ],
            "tabKey" : "tab2",
            "tabName" : "Details"
          } ],
          "useOverflowMenu" : false
        }
      },
      "componentName" : "forceCommunity:tabset",
      "id" : "0ff82e49-4795-4ae5-bbe0-1f5c9f3015a8",
      "regions" : [ {
        "components" : [ {
          "componentAttributes" : { },
          "componentName" : "runtime_industries_actionplan:taskManager",
          "id" : "6a5203ec-e7b2-4c1d-b1a4-a6f71438d61a",
          "renditionMap" : { },
          "type" : "component"
        }, {
          "componentAttributes" : { },
          "componentName" : "runtime_industries_actionplan:checklistItemManager",
          "id" : "86971923-bfd3-442b-9fce-22c83f24f25b",
          "renditionMap" : { },
          "type" : "component"
        } ],
        "id" : "66b958e9-cc34-459d-b553-f00e75d020f7",
        "regionLabel" : "Items",
        "regionName" : "tab1",
        "renditionMap" : { },
        "type" : "region"
      }, {
        "components" : [ {
          "componentAttributes" : {
            "recordId" : "{!recordId}"
          },
          "componentName" : "forceCommunity:recordDetail",
          "id" : "94cfad71-62a6-4403-a2f7-a26194555a33",
          "renditionMap" : { },
          "type" : "component"
        } ],
        "id" : "f32d0ac8-f600-4aae-9e20-a8b65d695d8e",
        "regionLabel" : "Details",
        "regionName" : "tab2",
        "renditionMap" : { },
        "type" : "region"
      } ],
      "renderPriority" : "NEUTRAL",
      "renditionMap" : { },
      "type" : "component"
    } ],
    "id" : "f7d15a96-9069-41e5-83c3-9740581cc8dc",
    "regionName" : "content",
    "type" : "region"
  }, {
    "id" : "26f7cc29-a139-40c3-a90b-b9c759a00988",
    "regionName" : "footer",
    "type" : "region"
  }, {
    "components" : [ {
      "componentAttributes" : {
        "customHeadTags" : "",
        "description" : "",
        "title" : "{!Record._Object}: {!Record._Title}"
      },
      "componentName" : "forceCommunity:seoAssistant",
      "id" : "57faafbe-5217-4edc-b944-fc6adebf24f5",
      "renditionMap" : { },
      "type" : "component"
    } ],
    "id" : "aae4aa24-0444-4a84-8414-565e88e55b15",
    "regionName" : "sfdcHiddenRegion",
    "type" : "region"
  } ],
  "themeLayoutType" : "Inner",
  "type" : "view",
  "viewType" : "detail-0PR"
}