{
  "appPageId" : "b9345d3f-d979-40a1-90a3-f03e5459c9fb",
  "componentName" : "siteforce:sldsOneColLayout",
  "id" : "123f19ff-20cf-481d-8c2e-5e3ce4ab4f8d",
  "label" : "Dashboard List",
  "regions" : [ {
    "id" : "92f3fdea-2143-4d35-bd01-99031be068d5",
    "regionName" : "header",
    "type" : "region"
  }, {
    "components" : [ {
      "componentAttributes" : { },
      "componentName" : "forceCommunity:dashboardList",
      "id" : "45b09cba-7c0d-4ff7-b994-6bbd7a53929b",
      "renderPriority" : "NEUTRAL",
      "renditionMap" : { },
      "type" : "component"
    } ],
    "id" : "7557645d-fa44-49f2-8eac-5fc529bfdb9a",
    "regionName" : "content",
    "type" : "region"
  }, {
    "id" : "ae28b775-8e20-41f5-8322-3441f65c00c4",
    "regionName" : "footer",
    "type" : "region"
  } ],
  "themeLayoutType" : "Inner",
  "type" : "view",
  "viewType" : "list-01Z"
}