{
  "appPageId" : "b9345d3f-d979-40a1-90a3-f03e5459c9fb",
  "componentName" : "siteforce:sldsOneColLayout",
  "id" : "0fe9ca3d-d9bb-4687-83bf-0c8cc4fbc701",
  "label" : "Feed Detail",
  "regions" : [ {
    "id" : "674a3777-6056-4348-8e59-8a3564acfcbf",
    "regionName" : "header",
    "type" : "region"
  }, {
    "components" : [ {
      "componentAttributes" : {
        "id" : "{!recordId}"
      },
      "componentName" : "forceCommunity:feedItemDetail",
      "id" : "9613f5da-41c8-4caa-915c-c144b662a536",
      "renderPriority" : "NEUTRAL",
      "renditionMap" : { },
      "type" : "component"
    } ],
    "id" : "6142d64a-5781-4a91-b651-0d3c37eac1ce",
    "regionName" : "content",
    "type" : "region"
  }, {
    "id" : "8592ddd9-4bd4-414e-91f9-5b0cc7328a65",
    "regionName" : "footer",
    "type" : "region"
  } ],
  "themeLayoutType" : "Inner",
  "type" : "view",
  "viewType" : "feeditem-generic"
}