{
  "appPageId" : "010eafd3-2915-441a-b462-9e28393b57f6",
  "componentName" : "siteforce:sldsOneColLayout",
  "id" : "e22e50b3-55f2-47e6-8d5b-2caa3f46c186",
  "label" : "loginpage",
  "regions" : [ {
    "id" : "3f2a8b2f-ec14-43fe-b33b-14f26276cdf4",
    "regionName" : "header",
    "type" : "region"
  }, {
    "id" : "6ab63224-7012-4fdb-99a7-94365131734d",
    "regionName" : "content",
    "type" : "region"
  }, {
    "id" : "315b714b-1bc1-447e-8092-8ebe4ca97d99",
    "regionName" : "footer",
    "type" : "region"
  }, {
    "components" : [ {
      "componentAttributes" : {
        "customHeadTags" : "",
        "description" : "",
        "title" : ""
      },
      "componentName" : "forceCommunity:seoAssistant",
      "id" : "02856225-5954-4c62-a997-36ab2358ae4a",
      "renditionMap" : { },
      "type" : "component"
    } ],
    "id" : "1cd9de37-24de-4262-966d-30d08eb9f987",
    "regionName" : "sfdcHiddenRegion",
    "type" : "region"
  } ],
  "themeLayoutType" : "Login",
  "type" : "view",
  "viewType" : "login-home"
}