{
  "appPageId" : "b9345d3f-d979-40a1-90a3-f03e5459c9fb",
  "componentName" : "siteforce:sldsOneColLayout",
  "id" : "1f90070b-8769-47b9-9bf0-6eb12305e9a6",
  "label" : "Quip Docs Related List",
  "regions" : [ {
    "id" : "82050af4-f729-4de0-b0c8-6a395206caaf",
    "regionName" : "header",
    "type" : "region"
  }, {
    "components" : [ {
      "componentAttributes" : {
        "parentRecordId" : "{!recordId}"
      },
      "componentName" : "forceCommunity:relatedQuipItemsView",
      "id" : "8ea04e17-50d8-4819-a0aa-2ce0ec2756b1",
      "renderPriority" : "NEUTRAL",
      "renditionMap" : { },
      "type" : "component"
    } ],
    "id" : "ca5f3adf-7444-49b7-a4be-58ad67d61e2e",
    "regionName" : "content",
    "type" : "region"
  }, {
    "id" : "761d371b-5946-47dd-9685-f42a11a4f652",
    "regionName" : "footer",
    "type" : "region"
  } ],
  "themeLayoutType" : "Inner",
  "type" : "view",
  "viewType" : "extrelated-quip"
}