{
  "appPageId" : "b9345d3f-d979-40a1-90a3-f03e5459c9fb",
  "componentName" : "siteforce:sldsOneColLayout",
  "id" : "9207fa34-e1fe-49ce-bcda-14d502678d87",
  "label" : "Report List",
  "regions" : [ {
    "id" : "6713ec82-cfd5-48b8-8cab-79d9d4449b5d",
    "regionName" : "header",
    "type" : "region"
  }, {
    "components" : [ {
      "componentAttributes" : { },
      "componentName" : "forceCommunity:reportList",
      "id" : "0de9e7bd-c00e-4639-a1d4-bfa7a3f77bf3",
      "renderPriority" : "NEUTRAL",
      "renditionMap" : { },
      "type" : "component"
    } ],
    "id" : "30faa2e4-9839-4c7a-b44b-bc6f72db5dda",
    "regionName" : "content",
    "type" : "region"
  }, {
    "id" : "df4fba08-646a-430d-a880-61b7667deaea",
    "regionName" : "footer",
    "type" : "region"
  } ],
  "themeLayoutType" : "Inner",
  "type" : "view",
  "viewType" : "list-00O"
}