{
  "appPageId" : "b9345d3f-d979-40a1-90a3-f03e5459c9fb",
  "componentName" : "siteforce:sldsOneColLayout",
  "id" : "bf63891d-5733-4ef3-90bd-9e3e286cc99c",
  "label" : "Stream Detail",
  "regions" : [ {
    "id" : "616ef501-438f-486c-943a-6c11243477aa",
    "regionName" : "header",
    "type" : "region"
  }, {
    "components" : [ {
      "componentAttributes" : {
        "id" : "{!recordId}"
      },
      "componentName" : "forceCommunity:streamDetail",
      "id" : "35d233e6-0b04-41c8-9de1-f531b92baad1",
      "renderPriority" : "NEUTRAL",
      "renditionMap" : { },
      "type" : "component"
    } ],
    "id" : "2687a2f6-69e7-4fe9-8aed-ec91c24b4b35",
    "regionName" : "content",
    "type" : "region"
  }, {
    "id" : "234d524f-1e26-472c-9c0f-907ae32da695",
    "regionName" : "footer",
    "type" : "region"
  } ],
  "themeLayoutType" : "Inner",
  "type" : "view",
  "viewType" : "detail-0Fq"
}