{
  "appPageId" : "b9345d3f-d979-40a1-90a3-f03e5459c9fb",
  "componentName" : "siteforce:sldsOneColLayout",
  "id" : "a1e5a345-7525-4ad2-9035-81fe1c67c77c",
  "label" : "User Profile",
  "regions" : [ {
    "id" : "9ad45679-f9af-40c4-b155-cb8fbc2090a4",
    "regionName" : "header",
    "type" : "region"
  }, {
    "components" : [ {
      "componentAttributes" : { },
      "componentName" : "c:hvUserProfile",
      "id" : "1a8e3226-4a9d-4a94-85ac-48f007bbc8f4",
      "renderPriority" : "NEUTRAL",
      "renditionMap" : { },
      "type" : "component"
    } ],
    "id" : "bfc68a33-7557-42be-a113-3f0c77c86002",
    "regionName" : "content",
    "type" : "region"
  }, {
    "id" : "258d82f1-0242-49b5-a016-19564824c2a6",
    "regionName" : "footer",
    "type" : "region"
  } ],
  "themeLayoutType" : "Inner",
  "type" : "view",
  "viewType" : "detail-005"
}