{
  "activeViewId" : "123f19ff-20cf-481d-8c2e-5e3ce4ab4f8d",
  "appPageId" : "b9345d3f-d979-40a1-90a3-f03e5459c9fb",
  "configurationTags" : [ ],
  "id" : "ae44c38a-acfe-4849-a8ae-fe667e209fc8",
  "label" : "Dashboard List",
  "routeType" : "list-01Z",
  "type" : "route",
  "urlPrefix" : "dashboard"
}