{
  "activeViewId" : "04e1c4e5-c378-4125-88e0-2eaae235fdd8",
  "appPageId" : "010eafd3-2915-441a-b462-9e28393b57f6",
  "configurationTags" : [ ],
  "id" : "0a715655-8270-41a3-9750-d0856730af31",
  "label" : "Login Error",
  "routeType" : "login-error",
  "type" : "route",
  "urlPrefix" : "error"
}