{
  "activeViewId" : "b29b163d-d1a3-4c3d-b366-7329a3ae04d8",
  "appPageId" : "b9345d3f-d979-40a1-90a3-f03e5459c9fb",
  "configurationTags" : [ ],
  "id" : "9577f280-2923-4a90-9726-89b0df933ccc",
  "label" : "Messages",
  "routeType" : "messages",
  "type" : "route",
  "urlPrefix" : "messages"
}